<svg xmlns="http://www.w3.org/2000/svg" height="511pt" version="1.1" viewBox="-61 1 511 511.99999" width="511pt">
<g id="surface1">
<path d="M 132.914062 459.035156 L 344.777344 459.035156 L 344.777344 247.171875 C 344.84375 364.113281 250.101562 458.964844 133.160156 459.035156 C 133.078125 459.035156 132.996094 459.035156 132.914062 459.035156 Z M 132.914062 459.035156 " style=" stroke:none;fill-rule:nonzero;fill:rgb(60.784314%,98.431373%,100%);fill-opacity:1;" />
<path d="M 44.636719 52.964844 L 44.636719 459.035156 L 132.914062 459.035156 C 249.851562 459.101562 344.707031 364.359375 344.773438 247.417969 C 344.773438 247.335938 344.773438 247.253906 344.773438 247.171875 L 344.773438 52.964844 Z M 44.636719 52.964844 " style=" stroke:none;fill-rule:nonzero;fill:rgb(74.117647%,99.215686%,100%);fill-opacity:1;" />
<path d="M 344.777344 26.484375 C 344.777344 15.808594 328.964844 0 309.464844 0 L 79.949219 0 C 60.445312 0 44.636719 15.808594 44.636719 35.3125 L 44.636719 52.964844 L 344.777344 52.964844 Z M 344.777344 26.484375 " style=" stroke:none;fill-rule:nonzero;fill:rgb(34.509804%,34.901961%,35.686275%);fill-opacity:1;" />
<path d="M 44.636719 485.515625 C 44.636719 496.191406 60.449219 512 79.949219 512 L 309.464844 512 C 328.964844 512 344.777344 496.191406 344.777344 476.6875 L 344.777344 459.035156 L 44.636719 459.035156 Z M 44.636719 485.515625 " style=" stroke:none;fill-rule:nonzero;fill:rgb(34.509804%,34.901961%,35.686275%);fill-opacity:1;" />
<path d="M 0.5 264.828125 C 0.5 298.957031 28.164062 326.621094 62.292969 326.621094 L 309.464844 326.621094 C 353.34375 326.621094 388.914062 291.050781 388.914062 247.171875 C 388.914062 203.296875 353.34375 167.726562 309.464844 167.726562 C 299.449219 167.679688 289.523438 169.597656 280.246094 173.375 C 268.738281 131.03125 225.085938 106.035156 182.742188 117.542969 C 159.902344 123.75 141.019531 139.816406 131.234375 161.371094 C 103.386719 152.542969 73.65625 167.960938 64.832031 195.808594 C 64.082031 198.171875 63.496094 200.589844 63.085938 203.035156 L 62.292969 203.035156 C 28.164062 203.035156 0.5 230.699219 0.5 264.828125 Z M 194.707031 176.550781 L 232.164062 214.007812 L 194.707031 176.550781 L 157.25 214.007812 Z M 194.707031 176.550781 " style=" stroke:none;fill-rule:nonzero;fill:rgb(47.058824%,72.54902%,92.156863%);fill-opacity:1;" />
<path d="M 185.878906 450.207031 L 203.535156 450.207031 L 203.535156 467.863281 L 185.878906 467.863281 Z M 185.878906 450.207031 " style=" stroke:none;fill-rule:nonzero;fill:rgb(94.509804%,94.901961%,94.901961%);fill-opacity:1;" />
<path d="M 185.878906 17.65625 L 203.535156 17.65625 L 203.535156 35.3125 L 185.878906 35.3125 Z M 185.878906 17.65625 " style=" stroke:none;fill-rule:nonzero;fill:rgb(94.509804%,94.901961%,94.901961%);fill-opacity:1;" />
<path d="M 185.878906 176.550781 L 203.535156 176.550781 L 203.535156 282.484375 L 185.878906 282.484375 Z M 185.878906 176.550781 " style=" stroke:none;fill-rule:nonzero;fill:rgb(94.509804%,94.901961%,94.901961%);fill-opacity:1;" />
<path d="M 225.921875 220.25 L 194.707031 189.035156 L 163.492188 220.25 L 151.011719 207.765625 L 194.707031 164.070312 L 238.402344 207.765625 Z M 225.921875 220.25 " style=" stroke:none;fill-rule:nonzero;fill:rgb(94.509804%,94.901961%,94.901961%);fill-opacity:1;" />
</g>
</svg>